{
    "providerName": "Rocky Point Academy Learning Solutions Center",
    "claimForAsebpId": 1226662,
    "onlineClaimType": "ExtendedHealthCare",
    "cobProviderName": "Standard Life",
    "cobHolderName": "Garth Misura",
    "cobHolderBirthDate": "1967-10-24T00:00:00-06:00",
    "cobEffectiveDate": "1999-01-01T00:00:00-07:00",
    "hasOtherCoverageOfBenefits": true,
    "hasCOBVision": false,
    "hasCOBExtendedHealthPrescription": true,
    "hasCOBDental": true,
    "hasInitializedCoordinationOfBenefits": true,
    "expense": {
        "spendingAccountId": 0,
        "expenseSubCategoryId": 0,
        "receiptRequired": false,
        "ineligibilityReason": null,
        "onlineClaimId": 2239,
        "onlineClaimMaxAmount": null,
        "onlineClaimPaidAmount": null,
        "id": 0,
        "type": "HSA",
        "asebpId": 1050035,
        "memberId": 1,
        "status": {
            "status": "Submitted",
            "statusDescription": "eligible",
            "statusPositivity": "Normal"
        },
        "editDeleteCutoffTimeUtc": "2216-06-08T03:06:32-06:00",
        "description": "Learning Disability correction educational therapy",
        "serviceDate": "0001-01-01T00:00:00-07:00",
        "recipientName": "Owen Misura",
        "amount": 780,
        "amountCovered": 780,
        "attachments": null,
        "submittedDate": "2016-06-08T03:06:32-06:00",
        "createdByUser": null,
        "createdDate": "2016-06-08T02:54:33-06:00",
        "lastUpdatedByUser": null,
        "lastUpdatedDate": "0001-01-01T00:00:00-07:00"
    },
    "id": 2239,
    "type": "OnlineClaim",
    "asebpId": 1038478,
    "memberId": 1,
    "status": {
        "status": "Processed",
        "statusDescription": "partially covered",
        "statusPositivity": "Positive"
    },
    "editDeleteCutoffTimeUtc": "2016-06-15T00:00:00-06:00",
    "description": "1 - Learning Disability correction educational therapy",
    "serviceDate": "2016-02-22T00:00:00-07:00",
    "recipientName": "Owen Misura",
    "amount": 3780,
    "amountCovered": 3000,
    "attachments": [
                    {
                    "id": 102,
                    "claimId": 2239,
                    "type": "Receipt",
                    "status": "Approved",
                    "contentType": "application/pdf",
                    "fileSize": 71380,
                    "fileName": null,
                    "lastUpdatedByUser": "me",
                    "lastUpdatedDate": "2016-06-16T11:01:29-06:00"
                    }
                    ],
    "submittedDate": "2016-06-08T03:06:32-06:00",
    "createdByUser": "1038478",
    "createdDate": "2016-06-08T02:54:33-06:00",
    "lastUpdatedByUser": "ASEBP\\TrudyS",
    "lastUpdatedDate": "2016-06-08T19:17:59-06:00"
}